<?xml version="1.0" encoding="UTF-8" standalone="no"?>
<!-- Created with Inkscape (http://www.inkscape.org/) -->

<svg
   xmlns:dc="http://purl.org/dc/elements/1.1/"
   xmlns:cc="http://creativecommons.org/ns#"
   xmlns:rdf="http://www.w3.org/1999/02/22-rdf-syntax-ns#"
   xmlns:svg="http://www.w3.org/2000/svg"
   xmlns="http://www.w3.org/2000/svg"
   xmlns:sodipodi="http://sodipodi.sourceforge.net/DTD/sodipodi-0.dtd"
   xmlns:inkscape="http://www.inkscape.org/namespaces/inkscape"
   width="248.73416mm"
   height="248.73366mm"
   viewBox="0 0 248.73416 248.73366"
   version="1.1"
   id="svg8"
   inkscape:version="0.92.2 5c3e80d, 2017-08-06"
   sodipodi:docname="optionbsd.svg">
  <defs
     id="defs2" />
  <sodipodi:namedview
     id="base"
     pagecolor="#ffffff"
     bordercolor="#666666"
     borderopacity="1.0"
     inkscape:pageopacity="0.0"
     inkscape:pageshadow="2"
     inkscape:zoom="0.49497475"
     inkscape:cx="441.85066"
     inkscape:cy="390.33298"
     inkscape:document-units="mm"
     inkscape:current-layer="layer1"
     showgrid="false"
     inkscape:snap-global="false"
     fit-margin-top="0"
     fit-margin-left="0"
     fit-margin-right="0"
     fit-margin-bottom="0"
     inkscape:window-width="1440"
     inkscape:window-height="855"
     inkscape:window-x="0"
     inkscape:window-y="1"
     inkscape:window-maximized="1" />
  <metadata
     id="metadata5">
    <rdf:RDF>
      <cc:Work
         rdf:about="">
        <dc:format>image/svg+xml</dc:format>
        <dc:type
           rdf:resource="http://purl.org/dc/dcmitype/StillImage" />
        <dc:title></dc:title>
      </cc:Work>
    </rdf:RDF>
  </metadata>
  <g
     inkscape:label="Layer 1"
     inkscape:groupmode="layer"
     id="layer1"
     transform="translate(304.27908,57.100906)">
    <path
       style="opacity:1;fill:#ffffff;fill-opacity:1;stroke:none;stroke-width:4.78488207;stroke-miterlimit:4;stroke-dasharray:none;stroke-dashoffset:0;stroke-opacity:1"
       d="m -1150.0312,254.23438 v 470.04687 h 940.09761 V 254.23438 Z"
       transform="scale(0.26458333)"
       id="rect881"
       inkscape:connector-curvature="0" />
    <path
       id="rect873"
       style="opacity:1;fill:#000000;fill-opacity:1;fill-rule:evenodd;stroke:none;stroke-width:0.06614584;stroke-miterlimit:4;stroke-dasharray:0.06614582, 0.396875;stroke-dashoffset:0;stroke-opacity:1"
       d="m -200.32937,3.0256551 -9.20719,22.5738159 a 77.107139,77.107139 0 0 0 -21.05815,5.632215 l -19.2505,-14.938107 3.30987,24.131343 a 77.107139,77.107139 0 0 0 -22.45134,26.841257 77.107139,77.107139 0 0 0 22.45599,26.8211 l -3.31297,24.150981 19.18849,-14.88953 a 77.107139,77.107139 0 0 0 21.13566,5.62136 l 9.19169,22.53609 9.20771,-22.57381 a 77.107139,77.107139 0 0 0 21.05814,-5.63222 l 19.25051,14.93811 -3.30988,-24.131343 a 77.107139,77.107139 0 0 0 11.89333,-11.164176 58.586306,40.443454 0 0 0 51.317797,24.688929 43.467258,53.294647 0 0 1 -15.105537,-40.35154 43.467258,53.294647 0 0 1 15.178401,-40.38048 58.586306,40.443454 0 0 0 -51.390661,24.789185 77.107139,77.107139 0 0 0 -11.89798,-11.243759 l 3.31298,-24.151497 -19.18798,14.890048 a 77.107139,77.107139 0 0 0 -21.13618,-5.621363 z M -304.27908,-57.100906 V 67.266179 H -55.544928 V -57.100906 Z"
       inkscape:connector-curvature="0" />
    <circle
       style="opacity:1;fill:#000000;fill-opacity:1;stroke:none;stroke-width:0.06614583;stroke-miterlimit:4;stroke-dasharray:0.06614583, 0.396875;stroke-dashoffset:0;stroke-opacity:1"
       id="path877"
       cx="-244.60803"
       cy="55.982971"
       r="5.6690779" />
    <ellipse
       style="opacity:1;fill:#ffffff;fill-opacity:1;stroke:none;stroke-width:0.06614583;stroke-miterlimit:4;stroke-dasharray:0.06614584, 0.396875;stroke-dashoffset:0;stroke-opacity:1"
       id="path879"
       cx="-258.71689"
       cy="80.511681"
       rx="14.432554"
       ry="3.7417736" />
  </g>
</svg>
